<svg width="197" height="211" viewBox="0 0 197 211" fill="none" xmlns="http://www.w3.org/2000/svg">
<path d="M14 174.5C14 166.492 20.4919 160 28.5 160H166.5C174.508 160 181 166.492 181 174.5V174.5C181 182.508 174.508 189 166.5 189H28.5C20.4919 189 14 182.508 14 174.5V174.5Z" fill="black"/>
<path d="M15.5846 169.838C18.6689 162.748 26.9169 159.5 34.0071 162.585L56.3947 172.323C63.4848 175.408 66.7323 183.656 63.648 190.746V190.746C60.5637 197.836 52.3156 201.083 45.2255 197.999L22.8379 188.26C15.7477 185.176 12.5003 176.928 15.5846 169.838V169.838Z" fill="black"/>
<path d="M135.325 188.885C132.384 181.734 135.797 173.553 142.948 170.612L165.526 161.325C172.677 158.384 180.858 161.797 183.799 168.948V168.948C186.74 176.098 183.328 184.279 176.177 187.221L153.598 196.507C146.447 199.448 138.266 196.036 135.325 188.885V188.885Z" fill="black"/>
<rect x="40" y="171.261" width="119.359" height="28" rx="14" transform="rotate(-0.60541 40 171.261)" fill="black"/>
<path d="M16.877 175.263C16.877 168.223 22.5841 162.516 29.6241 162.516H165.997C173.037 162.516 178.744 168.223 178.744 175.263V175.263C178.744 182.303 173.037 188.01 165.997 188.01H29.6241C22.5841 188.01 16.877 182.303 16.877 175.263V175.263Z" fill="#CFAF3D"/>
<path d="M18.4129 171.165C21.4024 164.932 29.0388 161.936 35.4692 164.473L58.7685 173.666C65.199 176.203 67.9885 183.312 64.999 189.545V189.545C62.0095 195.778 54.3731 198.774 47.9427 196.237L24.6434 187.045C18.2129 184.508 15.4234 177.398 18.4129 171.165V171.165Z" fill="#CFAF3D"/>
<path d="M134.473 187.909C131.622 181.623 134.554 174.571 141.021 172.159L164.586 163.368C171.053 160.956 178.607 164.096 181.457 170.382V170.382C184.308 176.669 181.376 183.72 174.909 186.133L151.345 194.923C144.877 197.336 137.324 194.195 134.473 187.909V187.909Z" fill="#CFAF3D"/>
<rect width="115.689" height="24.6152" rx="12.3076" transform="matrix(0.999954 -0.00958345 0.0116497 0.999932 42.0779 172.416)" fill="#CFAF3D"/>
<ellipse cx="145.012" cy="40.4988" rx="16.5" ry="43.512" transform="rotate(-50.2761 145.012 40.4988)" fill="black"/>
<ellipse cx="100.5" cy="27" rx="20" ry="43.5" transform="rotate(-90 100.5 27)" fill="black"/>
<ellipse cx="53.1421" cy="42.2966" rx="16.5" ry="43.512" transform="rotate(-130.785 53.1421 42.2966)" fill="black"/>
<rect x="55" y="34" width="94" height="32" fill="black"/>
<rect x="18.6942" y="55.5338" width="161.546" height="18" rx="9" transform="rotate(-0.378359 18.6942 55.5338)" fill="black"/>
<ellipse rx="15.3427" ry="40.7904" transform="matrix(0.655791 -0.754943 0.782843 0.622219 142.869 40.4474)" fill="#CFAF3D"/>
<ellipse cx="100.397" cy="28.127" rx="18.2541" ry="41.506" transform="rotate(-90 100.397 28.127)" fill="#CFAF3D"/>
<ellipse rx="15.3552" ry="40.7576" transform="matrix(-0.669743 -0.742593 0.771286 -0.636489 55.2103 42.0884)" fill="#CFAF3D"/>
<rect x="56.9831" y="34.516" width="89.6912" height="29.2066" fill="#CFAF3D"/>
<rect width="154.14" height="16.4287" rx="8.21436" transform="matrix(0.99998 -0.00631666 0.00690349 0.999976 22.3415 54.17)" fill="#CFAF3D"/>
<ellipse cx="55.6607" cy="56.0263" rx="1.66071" ry="1.97368" fill="black"/>
<ellipse cx="70.0536" cy="34.9737" rx="1.66071" ry="1.97368" fill="black"/>
<ellipse cx="85.5536" cy="56.0263" rx="1.66072" ry="1.97368" fill="black"/>
<ellipse cx="99.9464" cy="34.9737" rx="1.66072" ry="1.97368" fill="black"/>
<ellipse cx="115.446" cy="56.0263" rx="1.66072" ry="1.97368" fill="black"/>
<ellipse cx="129.839" cy="34.9737" rx="1.66071" ry="1.97368" fill="black"/>
<ellipse cx="145.339" cy="56.0263" rx="1.66071" ry="1.97368" fill="black"/>
<rect x="3.04456" y="76.0076" width="27.7079" height="10.0762" rx="5.03812" fill="#0D7604"/>
<rect x="114.832" y="76.4568" width="27.7079" height="10.0762" rx="5.03812" fill="#0D7604"/>
<rect width="26.7525" height="10.0762" rx="5.03812" transform="matrix(-1 0 0 1 141.584 76.4568)" fill="#0D7604"/>
<rect width="26.7525" height="10.0762" rx="5.03812" transform="matrix(-1 0 0 1 86.1683 76.0076)" fill="#0D7604"/>
<rect width="26.7525" height="10.0762" rx="5.03812" transform="matrix(-1 0 0 1 197 76.4568)" fill="#0D7604"/>
<rect width="29.619" height="9.89916" rx="4.94958" transform="matrix(0.908039 0.418886 -0.383122 0.923698 24.695 75)" fill="#0D7604"/>
<rect width="29.619" height="9.89916" rx="4.94958" transform="matrix(0.908039 0.418886 -0.383122 0.923698 80.1108 75.2246)" fill="#0D7604"/>
<rect width="29.619" height="9.89916" rx="4.94958" transform="matrix(0.908039 0.418886 -0.383122 0.923698 135.527 75.2246)" fill="#0D7604"/>
<rect width="28.7348" height="9.8472" rx="4.9236" transform="matrix(-0.901981 0.431777 0.371152 0.928572 66.2251 75.2246)" fill="#0D7604"/>
<rect width="28.7348" height="9.8472" rx="4.9236" transform="matrix(-0.901981 0.431777 0.371152 0.928572 121.641 75.4492)" fill="#0D7604"/>
<rect width="28.7348" height="9.8472" rx="4.9236" transform="matrix(-0.901981 0.431777 0.371152 0.928572 177.057 75.4492)" fill="#0D7604"/>
<rect width="28.1386" height="10.0762" rx="5.03812" transform="matrix(1 0 0 -1 0.0296936 154.992)" fill="#0D7604"/>
<rect width="28.1386" height="10.0762" rx="5.03812" transform="matrix(1 0 0 -1 113.554 154.543)" fill="#0D7604"/>
<rect x="140.723" y="154.543" width="27.1683" height="10.0762" rx="5.03812" transform="rotate(-180 140.723 154.543)" fill="#0D7604"/>
<rect x="84.4456" y="154.992" width="27.1683" height="10.0762" rx="5.03812" transform="rotate(-180 84.4456 154.992)" fill="#0D7604"/>
<rect x="197" y="154.543" width="27.1683" height="10.0762" rx="5.03812" transform="rotate(-180 197 154.543)" fill="#0D7604"/>
<rect width="29.9992" height="9.9219" rx="4.96095" transform="matrix(0.910469 -0.413578 -0.388186 -0.921581 22.0167 156)" fill="#0D7604"/>
<rect width="29.9992" height="9.9219" rx="4.96095" transform="matrix(0.910469 -0.413578 -0.388186 -0.921581 78.2939 155.775)" fill="#0D7604"/>
<rect width="29.9992" height="9.9219" rx="4.96095" transform="matrix(0.910469 -0.413578 -0.388185 -0.921581 134.571 155.775)" fill="#0D7604"/>
<rect width="29.0987" height="9.86843" rx="4.93421" transform="matrix(-0.904546 -0.426377 0.376111 -0.926575 64.1924 155.775)" fill="#0D7604"/>
<rect width="29.0987" height="9.86842" rx="4.93421" transform="matrix(-0.904546 -0.426377 0.376111 -0.926575 120.47 155.551)" fill="#0D7604"/>
<rect width="29.0987" height="9.86843" rx="4.93421" transform="matrix(-0.904546 -0.426377 0.376111 -0.926575 176.747 155.551)" fill="#0D7604"/>
<g filter="url(#filter0_d)">
<path d="M46.9253 120.98H58.0133C58.2773 120.98 58.5053 121.076 58.6973 121.268C58.8893 121.46 58.9853 121.688 58.9853 121.952V127.028C58.9853 127.292 58.8893 127.52 58.6973 127.712C58.5053 127.904 58.2773 128 58.0133 128H39.2573C38.9933 128 38.7653 127.904 38.5733 127.712C38.3813 127.52 38.2853 127.292 38.2853 127.028V103.772C38.2853 103.508 38.3813 103.28 38.5733 103.088C38.7653 102.896 38.9933 102.8 39.2573 102.8H57.7253C57.9893 102.8 58.2173 102.896 58.4093 103.088C58.6013 103.28 58.6973 103.508 58.6973 103.772V108.848C58.6973 109.112 58.6013 109.34 58.4093 109.532C58.2173 109.724 57.9893 109.82 57.7253 109.82H46.9253V112.088H56.9333C57.1973 112.088 57.4253 112.184 57.6173 112.376C57.8093 112.568 57.9053 112.796 57.9053 113.06V117.74C57.9053 118.004 57.8093 118.232 57.6173 118.424C57.4253 118.616 57.1973 118.712 56.9333 118.712H46.9253V120.98ZM71.2006 102.8H79.0126C79.8766 102.8 80.4166 103.196 80.6326 103.988L88.6606 126.956C88.6846 127.028 88.6966 127.148 88.6966 127.316C88.6966 127.46 88.6126 127.616 88.4446 127.784C88.3006 127.928 88.1206 128 87.9046 128H81.2446C80.5246 128 80.0566 127.7 79.8406 127.1L78.9766 124.724H71.2366L70.3726 127.1C70.1566 127.7 69.6886 128 68.9686 128H62.3086C62.0926 128 61.9006 127.928 61.7326 127.784C61.5886 127.616 61.5166 127.46 61.5166 127.316C61.5166 127.148 61.5286 127.028 61.5526 126.956L69.5806 103.988C69.7966 103.196 70.3366 102.8 71.2006 102.8ZM73.0726 117.704H77.1406L75.0886 111.008L73.0726 117.704ZM91.2942 102.8H112.39C112.654 102.8 112.882 102.896 113.074 103.088C113.266 103.28 113.362 103.508 113.362 103.772V109.568C113.362 109.832 113.266 110.06 113.074 110.252C112.882 110.444 112.654 110.54 112.39 110.54H106.414V127.028C106.414 127.292 106.318 127.52 106.126 127.712C105.934 127.904 105.706 128 105.442 128H98.2422C97.9782 128 97.7502 127.904 97.5582 127.712C97.3662 127.52 97.2702 127.292 97.2702 127.028V110.54H91.2942C91.0302 110.54 90.8022 110.444 90.6102 110.252C90.4182 110.06 90.3222 109.832 90.3222 109.568V103.772C90.3222 103.508 90.4182 103.28 90.6102 103.088C90.8022 102.896 91.0302 102.8 91.2942 102.8ZM135.547 128H128.203C127.939 128 127.711 127.904 127.519 127.712C127.327 127.52 127.231 127.292 127.231 127.028V103.772C127.231 103.508 127.327 103.28 127.519 103.088C127.711 102.896 127.939 102.8 128.203 102.8H135.547C135.811 102.8 136.039 102.896 136.231 103.088C136.423 103.28 136.519 103.508 136.519 103.772V127.028C136.519 127.292 136.423 127.52 136.231 127.712C136.039 127.904 135.811 128 135.547 128ZM140.9 102.8H161.996C162.26 102.8 162.488 102.896 162.68 103.088C162.872 103.28 162.968 103.508 162.968 103.772V109.568C162.968 109.832 162.872 110.06 162.68 110.252C162.488 110.444 162.26 110.54 161.996 110.54H156.02V127.028C156.02 127.292 155.924 127.52 155.732 127.712C155.54 127.904 155.312 128 155.048 128H147.848C147.584 128 147.356 127.904 147.164 127.712C146.972 127.52 146.876 127.292 146.876 127.028V110.54H140.9C140.636 110.54 140.408 110.444 140.216 110.252C140.024 110.06 139.928 109.832 139.928 109.568V103.772C139.928 103.508 140.024 103.28 140.216 103.088C140.408 102.896 140.636 102.8 140.9 102.8Z" fill="#A43A0C"/>
</g>
<defs>
<filter id="filter0_d" x="34.2853" y="102.8" width="132.682" height="33.2" filterUnits="userSpaceOnUse" color-interpolation-filters="sRGB">
<feFlood flood-opacity="0" result="BackgroundImageFix"/>
<feColorMatrix in="SourceAlpha" type="matrix" values="0 0 0 0 0 0 0 0 0 0 0 0 0 0 0 0 0 0 127 0"/>
<feOffset dy="4"/>
<feGaussianBlur stdDeviation="2"/>
<feColorMatrix type="matrix" values="0 0 0 0 0 0 0 0 0 0 0 0 0 0 0 0 0 0 0.25 0"/>
<feBlend mode="normal" in2="BackgroundImageFix" result="effect1_dropShadow"/>
<feBlend mode="normal" in="SourceGraphic" in2="effect1_dropShadow" result="shape"/>
</filter>
</defs>
</svg>
